dump.vcd
$date
	Sun Aug 17 16:48:00 2025
$end
$version
	Icarus Verilog
$end
$timescale
	1s
$end
$scope module tb $end
$var reg 1 ! clk $end
$var reg 1 " rst $end
$scope module dut $end
$var wire 2 # ForwardAE [1:0] $end
$var wire 2 $ ForwardBE [1:0] $end
$var wire 1 ! clk $end
$var wire 1 " rst $end
$var wire 32 % WriteDataM [31:0] $end
$var wire 32 & ResultW [31:0] $end
$var wire 1 ' ResultSrcW $end
$var wire 1 ( ResultSrcM $end
$var wire 1 ) ResultSrcE $end
$var wire 1 * RegWriteW $end
$var wire 1 + RegWriteM $end
$var wire 1 , RegWriteE $end
$var wire 32 - ReadDataW [31:0] $end
$var wire 5 . RS2_E [4:0] $end
$var wire 5 / RS1_E [4:0] $end
$var wire 5 0 RD_M [4:0] $end
$var wire 5 1 RD_E [4:0] $end
$var wire 5 2 RDW [4:0] $end
$var wire 32 3 RD2_E [31:0] $end
$var wire 32 4 RD1_E [31:0] $end
$var wire 32 5 PCTargetE [31:0] $end
$var wire 1 6 PCSrcE $end
$var wire 32 7 PCPlus4W [31:0] $end
$var wire 32 8 PCPlus4M [31:0] $end
$var wire 32 9 PCPlus4E [31:0] $end
$var wire 32 : PCPlus4D [31:0] $end
$var wire 32 ; PCE [31:0] $end
$var wire 32 < PCD [31:0] $end
$var wire 1 = MemWriteM $end
$var wire 1 > MemWriteE $end
$var wire 32 ? InstrD [31:0] $end
$var wire 32 @ Imm_Ext_E [31:0] $end
$var wire 1 A BranchE $end
$var wire 32 B ALU_ResultW [31:0] $end
$var wire 32 C ALU_ResultM [31:0] $end
$var wire 1 D ALUSrcE $end
$var wire 3 E ALUControlE [2:0] $end
$scope module Decode $end
$var wire 3 F ALUControlE [2:0] $end
$var wire 1 D ALUSrcE $end
$var wire 1 A BranchE $end
$var wire 32 G Imm_Ext_E [31:0] $end
$var wire 1 > MemWriteE $end
$var wire 32 H PCE [31:0] $end
$var wire 32 I PCPlus4E [31:0] $end
$var wire 32 J RD1_E [31:0] $end
$var wire 32 K RD2_E [31:0] $end
$var wire 5 L RD_E [4:0] $end
$var wire 5 M RS1_E [4:0] $end
$var wire 5 N RS2_E [4:0] $end
$var wire 1 , RegWriteE $end
$var wire 1 ) ResultSrcE $end
$var wire 1 ! clk $end
$var wire 1 " rst $end
$var wire 32 O ResultW [31:0] $end
$var wire 1 P ResultSrcD $end
$var wire 1 * RegWriteW $end
$var wire 1 Q RegWriteD $end
$var wire 5 R RDW [4:0] $end
$var wire 32 S RD2_D [31:0] $end
$var wire 32 T RD1_D [31:0] $end
$var wire 32 U PCPlus4D [31:0] $end
$var wire 32 V PCD [31:0] $end
$var wire 1 W MemWriteD $end
$var wire 32 X InstrD [31:0] $end
$var wire 32 Y Imm_Ext_D [31:0] $end
$var wire 2 Z ImmSrcD [1:0] $end
$var wire 1 [ BranchD $end
$var wire 1 \ ALUSrcD $end
$var wire 3 ] ALUControlD [2:0] $end
$var reg 3 ^ ALUControlD_r [2:0] $end
$var reg 1 D ALUSrcD_r $end
$var reg 1 A BranchD_r $end
$var reg 32 _ Imm_Ext_D_r [31:0] $end
$var reg 1 ` MemWriteD_r $end
$var reg 32 a PCD_r [31:0] $end
$var reg 32 b PCPlus4D_r [31:0] $end
$var reg 32 c RD1_D_r [31:0] $end
$var reg 32 d RD2_D_r [31:0] $end
$var reg 5 e RD_D_r [4:0] $end
$var reg 5 f RS1_D_r [4:0] $end
$var reg 5 g RS2_D_r [4:0] $end
$var reg 1 h RegWriteD_r $end
$var reg 1 i ResultSrcD_r $end
$scope module control $end
$var wire 7 j Op [6:0] $end
$var wire 3 k funct3 [2:0] $end
$var wire 7 l funct7 [6:0] $end
$var wire 1 P ResultSrc $end
$var wire 1 Q RegWrite $end
$var wire 1 W MemWrite $end
$var wire 2 m ImmSrc [1:0] $end
$var wire 1 [ Branch $end
$var wire 1 \ ALUSrc $end
$var wire 2 n ALUOp [1:0] $end
$var wire 3 o ALUControl [2:0] $end
$scope module AD $end
$var wire 3 p Funct3 [2:0] $end
$var wire 7 q Funct7 [6:0] $end
$var wire 7 r Op [6:0] $end
$var wire 2 s ALUOp [1:0] $end
$var reg 3 t ALUControl [2:0] $end
$upscope $end
$scope module MD $end
$var wire 7 u Op [6:0] $end
$var wire 1 P ResultSrc $end
$var wire 1 Q RegWrite $end
$var wire 1 W MemWrite $end
$var wire 2 v ImmSrc [1:0] $end
$var wire 1 [ Branch $end
$var wire 1 \ ALUSrc $end
$var wire 2 w ALUOp [1:0] $end
$upscope $end
$upscope $end
$scope module extension $end
$var wire 2 x ImmSrc [1:0] $end
$var wire 32 y In [31:0] $end
$var wire 32 z Imm_Ext [31:0] $end
$upscope $end
$scope module rf $end
$var wire 5 { A1 [4:0] $end
$var wire 5 | A2 [4:0] $end
$var wire 1 ! clk $end
$var wire 1 " rst $end
$var wire 1 * WE3 $end
$var wire 32 } WD3 [31:0] $end
$var wire 5 ~ A3 [4:0] $end
$var reg 32 !" RD1 [31:0] $end
$var reg 32 "" RD2 [31:0] $end
$upscope $end
$upscope $end
$scope module Execute $end
$var wire 3 #" ALUControlE [2:0] $end
$var wire 1 D ALUSrcE $end
$var wire 1 A BranchE $end
$var wire 2 $" ForwardA_E [1:0] $end
$var wire 2 %" ForwardB_E [1:0] $end
$var wire 32 &" Imm_Ext_E [31:0] $end
$var wire 1 > MemWriteE $end
$var wire 1 = MemWriteM $end
$var wire 32 '" PCE [31:0] $end
$var wire 32 (" PCPlus4E [31:0] $end
$var wire 32 )" PCPlus4M [31:0] $end
$var wire 1 6 PCSrcE $end
$var wire 32 *" RD1_E [31:0] $end
$var wire 32 +" RD2_E [31:0] $end
$var wire 5 ," RD_E [4:0] $end
$var wire 5 -" RD_M [4:0] $end
$var wire 1 , RegWriteE $end
$var wire 1 + RegWriteM $end
$var wire 1 ) ResultSrcE $end
$var wire 1 ( ResultSrcM $end
$var wire 32 ." WriteDataM [31:0] $end
$var wire 1 ! clk $end
$var wire 1 " rst $end
$var wire 1 /" ZeroE $end
$var wire 32 0" Src_B_interim [31:0] $end
$var wire 32 1" Src_B [31:0] $end
$var wire 32 2" Src_A [31:0] $end
$var wire 32 3" ResultW [31:0] $end
$var wire 32 4" ResultE [31:0] $end
$var wire 32 5" PCTargetE [31:0] $end
$var wire 32 6" ALU_ResultM [31:0] $end
$var reg 1 7" MemWriteE_r $end
$var reg 32 8" PCPlus4E_r [31:0] $end
$var reg 32 9" RD2_E_r [31:0] $end
$var reg 5 :" RD_E_r [4:0] $end
$var reg 1 ;" RegWriteE_r $end
$var reg 32 <" ResultE_r [31:0] $end
$var reg 1 =" ResultSrcE_r $end
$scope module alu $end
$var wire 3 >" ALUControl [2:0] $end
$var wire 1 ?" Carry $end
$var wire 1 @" OverFlow $end
$var wire 1 /" Zero $end
$var wire 32 A" Sum [31:0] $end
$var wire 32 B" Result [31:0] $end
$var wire 1 C" Negative $end
$var wire 1 D" Cout $end
$var wire 32 E" B [31:0] $end
$var wire 32 F" A [31:0] $end
$upscope $end
$scope module alu_src_mux $end
$var wire 32 G" b [31:0] $end
$var wire 1 D s $end
$var wire 32 H" c [31:0] $end
$var wire 32 I" a [31:0] $end
$upscope $end
$scope module branch_adder $end
$var wire 32 J" a [31:0] $end
$var wire 32 K" b [31:0] $end
$var wire 32 L" c [31:0] $end
$upscope $end
$scope module srca_mux $end
$var wire 32 M" a [31:0] $end
$var wire 32 N" c [31:0] $end
$var wire 2 O" s [1:0] $end
$var wire 32 P" d [31:0] $end
$var wire 32 Q" b [31:0] $end
$upscope $end
$scope module srcb_mux $end
$var wire 32 R" a [31:0] $end
$var wire 32 S" c [31:0] $end
$var wire 2 T" s [1:0] $end
$var wire 32 U" d [31:0] $end
$var wire 32 V" b [31:0] $end
$upscope $end
$upscope $end
$scope module Fetch $end
$var wire 1 6 PCSrcE $end
$var wire 32 W" PCTargetE [31:0] $end
$var wire 1 ! clk $end
$var wire 1 " rst $end
$var wire 32 X" PC_F [31:0] $end
$var wire 32 Y" PCPlus4F [31:0] $end
$var wire 32 Z" PCPlus4D [31:0] $end
$var wire 32 [" PCF [31:0] $end
$var wire 32 \" PCD [31:0] $end
$var wire 32 ]" InstrF [31:0] $end
$var wire 32 ^" InstrD [31:0] $end
$var reg 32 _" InstrF_reg [31:0] $end
$var reg 32 `" PCF_reg [31:0] $end
$var reg 32 a" PCPlus4F_reg [31:0] $end
$scope module IMEM $end
$var wire 1 " rst $end
$var wire 32 b" RD [31:0] $end
$var wire 32 c" A [31:0] $end
$upscope $end
$scope module PC_MUX $end
$var wire 32 d" b [31:0] $end
$var wire 1 6 s $end
$var wire 32 e" c [31:0] $end
$var wire 32 f" a [31:0] $end
$upscope $end
$scope module PC_adder $end
$var wire 32 g" b [31:0] $end
$var wire 32 h" c [31:0] $end
$var wire 32 i" a [31:0] $end
$upscope $end
$scope module Program_Counter $end
$var wire 32 j" PC_Next [31:0] $end
$var wire 1 ! clk $end
$var wire 1 " rst $end
$var reg 32 k" PC [31:0] $end
$upscope $end
$upscope $end
$scope module Memory $end
$var wire 32 l" ALU_ResultM [31:0] $end
$var wire 32 m" ALU_ResultW [31:0] $end
$var wire 1 = MemWriteM $end
$var wire 32 n" PCPlus4M [31:0] $end
$var wire 32 o" PCPlus4W [31:0] $end
$var wire 5 p" RD_M [4:0] $end
$var wire 5 q" RD_W [4:0] $end
$var wire 32 r" ReadDataW [31:0] $end
$var wire 1 + RegWriteM $end
$var wire 1 * RegWriteW $end
$var wire 1 ( ResultSrcM $end
$var wire 1 ' ResultSrcW $end
$var wire 32 s" WriteDataM [31:0] $end
$var wire 1 ! clk $end
$var wire 1 " rst $end
$var wire 32 t" ReadDataM [31:0] $end
$var reg 32 u" ALU_ResultM_r [31:0] $end
$var reg 32 v" PCPlus4M_r [31:0] $end
$var reg 5 w" RD_M_r [4:0] $end
$var reg 32 x" ReadDataM_r [31:0] $end
$var reg 1 y" RegWriteM_r $end
$var reg 1 ' ResultSrcM_r $end
$scope module dmem $end
$var wire 32 z" A [31:0] $end
$var wire 32 {" WD [31:0] $end
$var wire 1 = WE $end
$var wire 1 ! clk $end
$var wire 1 " rst $end
$var wire 32 |" RD [31:0] $end
$upscope $end
$upscope $end
$scope module WriteBack $end
$var wire 32 }" ALU_ResultW [31:0] $end
$var wire 32 ~" PCPlus4W [31:0] $end
$var wire 32 !# ReadDataW [31:0] $end
$var wire 1 ' ResultSrcW $end
$var wire 1 ! clk $end
$var wire 1 " rst $end
$var wire 32 "# ResultW [31:0] $end
$scope module result_mux $end
$var wire 32 ## a [31:0] $end
$var wire 32 $# b [31:0] $end
$var wire 1 ' s $end
$var wire 32 %# c [31:0] $end
$upscope $end
$upscope $end
$upscope $end
$upscope $end
$enddefinitions $end
$comment Show the parameter values. $end
$dumpall
$end
#0
$dumpvars
b0 %#
b0 $#
b0 ##
b0 "#
b0 !#
b0 ~"
b0 }"
b0 |"
b0 {"
b0 z"
0y"
b0 x"
b0 w"
b0 v"
b0 u"
b0 t"
b0 s"
b0 r"
b0 q"
b0 p"
b0 o"
b0 n"
b0 m"
b0 l"
bx k"
bx j"
bx i"
bx h"
b100 g"
bx f"
bx e"
b0 d"
bx c"
b0 b"
b0 a"
b0 `"
b0 _"
b0 ^"
b0 ]"
b0 \"
bx ["
b0 Z"
bx Y"
bx X"
b0 W"
b0 V"
b0 U"
bz T"
b0 S"
b0 R"
b0 Q"
b0 P"
bz O"
b0 N"
b0 M"
b0 L"
b0 K"
b0 J"
b0 I"
b0 H"
b0 G"
b0 F"
b0 E"
0D"
0C"
b0 B"
b0 A"
0@"
0?"
b0 >"
0="
b0 <"
0;"
b0 :"
b0 9"
b0 8"
07"
b0 6"
b0 5"
b0 4"
b0 3"
b0 2"
b0 1"
b0 0"
1/"
b0 ."
b0 -"
b0 ,"
b0 +"
b0 *"
b0 )"
b0 ("
b0 '"
b0 &"
bz %"
bz $"
b0 #"
b0 ""
b0 !"
b0 ~
b0 }
b0 |
b0 {
b0 z
b0 y
b0 x
b0 w
b0 v
b0 u
b0 t
b0 s
b0 r
b0 q
b0 p
b0 o
b0 n
b0 m
b0 l
b0 k
b0 j
0i
0h
b0 g
b0 f
b0 e
b0 d
b0 c
b0 b
b0 a
0`
b0 _
b0 ^
b0 ]
0\
0[
b0 Z
b0 Y
b0 X
0W
b0 V
b0 U
b0 T
b0 S
b0 R
0Q
0P
b0 O
b0 N
b0 M
b0 L
b0 K
b0 J
b0 I
b0 H
b0 G
b0 F
b0 E
0D
b0 C
b0 B
0A
b0 @
b0 ?
0>
0=
b0 <
b0 ;
b0 :
b0 9
b0 8
b0 7
06
b0 5
b0 4
b0 3
b0 2
b0 1
b0 0
b0 /
b0 .
b0 -
0,
0+
0*
0)
0(
0'
b0 &
b0 %
bz $
bz #
0"
1!
$end
#50
0!
#100
b100 X"
b100 e"
b100 j"
b100 Y"
b100 f"
b100 h"
b0 ["
b0 c"
b0 i"
b0 k"
1!
#150
0!
#200
b10100000000001010010011 ]"
b10100000000001010010011 b"
1"
1!
#250
0!
#300
b101 Y
b101 z
bx S
bx ""
b1100000000001100010011 ]"
b1100000000001100010011 b"
b101 |
b10011 j
b10011 r
b10011 u
b1000 X"
b1000 e"
b1000 j"
b100 :
b100 U
b100 Z"
b10100000000001010010011 ?
b10100000000001010010011 X
b10100000000001010010011 y
b10100000000001010010011 ^"
b1000 Y"
b1000 f"
b1000 h"
b100 ["
b100 c"
b100 i"
b100 k"
b100 a"
b10100000000001010010011 _"
1!
#350
0!
#400
x@"
xC"
x/"
bx 4"
bx B"
x?"
bx A"
xD"
b11 Y
b11 z
b11000101000001110110011 ]"
b11000101000001110110011 b"
bx 1"
bx E"
bx H"
b11 |
b1100 X"
b1100 e"
b1100 j"
bx 0"
bx I"
bx U"
b1000 :
b1000 U
b1000 Z"
b100 <
b100 V
b100 \"
b1100000000001100010011 ?
b1100000000001100010011 X
b1100000000001100010011 y
b1100000000001100010011 ^"
b1100 Y"
b1100 f"
b1100 h"
b1000 ["
b1000 c"
b1000 i"
b1000 k"
b101 .
b101 N
b101 g
b100 9
b100 I
b100 ("
b100 b
b101 1
b101 L
b101 ,"
b101 e
b101 5
b101 5"
b101 L"
b101 W"
b101 d"
b101 @
b101 G
b101 _
b101 &"
b101 G"
b101 K"
bx 3
bx K
bx d
bx +"
bx R"
b1000 a"
b100 `"
b1100000000001100010011 _"
1!
#450
0!
#500
1Q
b110 Y
b110 z
bx T
bx !"
b10 n
b10 s
b10 w
bx 2"
bx F"
bx P"
b10010000000011 ]"
b10010000000011 b"
b110 |
b101 {
b110011 j
b110011 r
b110011 u
b10000 X"
b10000 e"
b10000 j"
b1100 :
b1100 U
b1100 Z"
b1000 <
b1000 V
b1000 \"
b11000101000001110110011 ?
b11000101000001110110011 X
b11000101000001110110011 y
b11000101000001110110011 ^"
bx t"
bx |"
b10000 Y"
b10000 f"
b10000 h"
b1100 ["
b1100 c"
b1100 i"
b1100 k"
b1100 a"
b1000 `"
b11000101000001110110011 _"
b11 .
b11 N
b11 g
b1000 9
b1000 I
b1000 ("
b1000 b
b100 ;
b100 H
b100 a
b100 '"
b100 J"
b110 1
b110 L
b110 ,"
b110 e
b111 5
b111 5"
b111 L"
b111 W"
b111 d"
b11 @
b11 G
b11 _
b11 &"
b11 G"
b11 K"
bx C
bx 6"
bx <"
bx N"
bx S"
bx l"
bx z"
bx %
bx ."
bx s"
bx {"
bx 9"
b100 8
b100 )"
b100 n"
b100 8"
b101 0
b101 -"
b101 p"
b101 :"
1!
#550
0!
#600
1\
b0 Y
b0 z
b0 S
b0 ""
b0 T
b0 !"
1P
b0 n
b0 s
b0 w
b100000000010010010011 ]"
b100000000010010010011 b"
b0 |
b0 {
b10 k
b10 p
b11 j
b11 r
b11 u
b10100 X"
b10100 e"
b10100 j"
bx &
bx O
bx }
bx 3"
bx Q"
bx V"
bx "#
bx %#
b10000 :
b10000 U
b10000 Z"
b1100 <
b1100 V
b1100 \"
b10010000000011 ?
b10010000000011 X
b10010000000011 y
b10010000000011 ^"
b10100 Y"
b10100 f"
b10100 h"
b10000 ["
b10000 c"
b10000 i"
b10000 k"
bx -
bx r"
bx x"
bx !#
bx $#
bx B
bx m"
bx u"
bx }"
bx ##
b100 7
b100 o"
b100 ~"
b100 v"
b101 2
b101 R
b101 ~
b101 q"
b101 w"
b1000 8
b1000 )"
b1000 n"
b1000 8"
b110 0
b110 -"
b110 p"
b110 :"
b110 .
b110 N
b110 g
b101 /
b101 M
b101 f
b1100 9
b1100 I
b1100 ("
b1100 b
b1000 ;
b1000 H
b1000 a
b1000 '"
b1000 J"
b111 1
b111 L
b111 ,"
b111 e
b1110 5
b1110 5"
b1110 L"
b1110 W"
b1110 d"
b110 @
b110 G
b110 _
b110 &"
b110 G"
b110 K"
bx 4
bx J
bx c
bx *"
bx M"
1,
1h
b10000 a"
b1100 `"
b10010000000011 _"
1!
#650
0!
#700
0Q
0\
b1 Y
b1 z
bx S
bx ""
0P
b100101000000010100110011 ]"
b100101000000010100110011 b"
b1 |
b0 k
b0 p
b10011 j
b10011 r
b10011 u
b0 1"
b0 E"
b0 H"
b11000 X"
b11000 e"
b11000 j"
b10100 :
b10100 U
b10100 Z"
b10000 <
b10000 V
b10000 \"
b100000000010010010011 ?
b100000000010010010011 X
b100000000010010010011 y
b100000000010010010011 ^"
b11000 Y"
b11000 f"
b11000 h"
b10100 ["
b10100 c"
b10100 i"
b10100 k"
b10100 a"
b10000 `"
b100000000010010010011 _"
b0 .
b0 N
b0 g
b0 /
b0 M
b0 f
b10000 9
b10000 I
b10000 ("
b10000 b
b1100 ;
b1100 H
b1100 a
b1100 '"
b1100 J"
b1000 1
b1000 L
b1000 ,"
b1000 e
b1100 5
b1100 5"
b1100 L"
b1100 W"
b1100 d"
b0 @
b0 G
b0 _
b0 &"
b0 G"
b0 K"
b0 3
b0 K
b0 d
b0 +"
b0 R"
b0 4
b0 J
b0 c
b0 *"
b0 M"
1)
1i
1D
b1100 8
b1100 )"
b1100 n"
b1100 8"
b111 0
b111 -"
b111 p"
b111 :"
1+
1;"
b1000 7
b1000 o"
b1000 ~"
b1000 v"
b110 2
b110 R
b110 ~
b110 q"
b110 w"
1!
#750
0!
#800
1Q
b1001 Y
b1001 z
bx T
bx !"
b10 n
b10 s
b10 w
bx ]"
bx b"
b1001 |
b1000 {
b110011 j
b110011 r
b110011 u
b11100 X"
b11100 e"
b11100 j"
bx 1"
bx E"
bx H"
b11000 :
b11000 U
b11000 Z"
b10100 <
b10100 V
b10100 \"
b100101000000010100110011 ?
b100101000000010100110011 X
b100101000000010100110011 y
b100101000000010100110011 ^"
b11100 Y"
b11100 f"
b11100 h"
b11000 ["
b11000 c"
b11000 i"
b11000 k"
b1100 7
b1100 o"
b1100 ~"
b1100 v"
b111 2
b111 R
b111 ~
b111 q"
b111 w"
1*
1y"
b10000 8
b10000 )"
b10000 n"
b10000 8"
b1000 0
b1000 -"
b1000 p"
b1000 :"
1(
1="
b1 .
b1 N
b1 g
b10100 9
b10100 I
b10100 ("
b10100 b
b10000 ;
b10000 H
b10000 a
b10000 '"
b10000 J"
b1001 1
b1001 L
b1001 ,"
b1001 e
b10001 5
b10001 5"
b10001 L"
b10001 W"
b10001 d"
b1 @
b1 G
b1 _
b1 &"
b1 G"
b1 K"
bx 3
bx K
bx d
bx +"
bx R"
0)
0i
0D
0,
0h
b11000 a"
b10100 `"
b100101000000010100110011 _"
1!
#850
0!
#900
xQ
x\
bx Y
bx z
bx Z
bx m
bx v
bx x
xW
xP
x[
bx n
bx s
bx w
bx |
bx {
bx l
bx q
bx k
bx p
bx j
bx r
bx u
b100000 X"
b100000 e"
b100000 j"
b11100 :
b11100 U
b11100 Z"
b11000 <
b11000 V
b11000 \"
bx ?
bx X
bx y
bx ^"
b100000 Y"
b100000 f"
b100000 h"
b11100 ["
b11100 c"
b11100 i"
b11100 k"
b11100 a"
b11000 `"
bx _"
b1001 .
b1001 N
b1001 g
b1000 /
b1000 M
b1000 f
b11000 9
b11000 I
b11000 ("
b11000 b
b10100 ;
b10100 H
b10100 a
b10100 '"
b10100 J"
b1010 1
b1010 L
b1010 ,"
b1010 e
b11101 5
b11101 5"
b11101 L"
b11101 W"
b11101 d"
b1001 @
b1001 G
b1001 _
b1001 &"
b1001 G"
b1001 K"
bx 4
bx J
bx c
bx *"
bx M"
1,
1h
b10100 8
b10100 )"
b10100 n"
b10100 8"
b1001 0
b1001 -"
b1001 p"
b1001 :"
0(
0="
0+
0;"
b10000 7
b10000 o"
b10000 ~"
b10000 v"
b1000 2
b1000 R
b1000 ~
b1000 q"
b1000 w"
1'
1!
#950
0!
#1000
bx X"
bx e"
bx j"
x6
b100000 :
b100000 U
b100000 Z"
b11100 <
b11100 V
b11100 \"
b100100 Y"
b100100 f"
b100100 h"
b100000 ["
b100000 c"
b100000 i"
b100000 k"
b10100 7
b10100 o"
b10100 ~"
b10100 v"
b1001 2
b1001 R
b1001 ~
b1001 q"
b1001 w"
0'
0*
0y"
b11000 8
b11000 )"
b11000 n"
b11000 8"
b1010 0
b1010 -"
b1010 p"
b1010 :"
1+
1;"
bx .
bx N
bx g
bx /
bx M
bx f
b11100 9
b11100 I
b11100 ("
b11100 b
b11000 ;
b11000 H
b11000 a
b11000 '"
b11000 J"
bx 1
bx L
bx ,"
bx e
bx 5
bx 5"
bx L"
bx W"
bx d"
bx @
bx G
bx _
bx &"
bx G"
bx K"
xA
x)
xi
x>
x`
xD
x,
xh
b100000 a"
b11100 `"
1!
#1050
0!
#1100
b100100 :
b100100 U
b100100 Z"
b100000 <
b100000 V
b100000 \"
bx Y"
bx f"
bx h"
bx ["
bx c"
bx i"
bx k"
b100100 a"
b100000 `"
b100000 9
b100000 I
b100000 ("
b100000 b
b11100 ;
b11100 H
b11100 a
b11100 '"
b11100 J"
b11100 8
b11100 )"
b11100 n"
b11100 8"
bx 0
bx -"
bx p"
bx :"
x(
x="
x=
x7"
x+
x;"
b11000 7
b11000 o"
b11000 ~"
b11000 v"
b1010 2
b1010 R
b1010 ~
b1010 q"
b1010 w"
1*
1y"
1!
#1150
0!
#1200
bx :
bx U
bx Z"
bx <
bx V
bx \"
b11100 7
b11100 o"
b11100 ~"
b11100 v"
bx 2
bx R
bx ~
bx q"
bx w"
x'
x*
xy"
b100000 8
b100000 )"
b100000 n"
b100000 8"
b100100 9
b100100 I
b100100 ("
b100100 b
b100000 ;
b100000 H
b100000 a
b100000 '"
b100000 J"
bx a"
bx `"
1!
